	ALA	ARG	ASN	ASP	CYS	GLN	GLU	GLY	HIS	ILE	LEU	LYS	MET	PHE	PRO	SER	THR	TRP	TYR	VAL	chain_id	neighbourhood_num_of_residues	neighbourhood_residues_that_are_hydr_protrusions	neighbourhood_residues_that_are_protrusions	pdb	residue_name	residue_number
0	0	0	2	0	0	0	0	1	0	0	1	2	0	0	0	0	1	0	0	0	[A, A, A, A, A, A, A]	7	0	0	3pox	PHE	244
1	0	0	0	0	0	0	0	0	0	0	0	1	0	0	0	2	0	0	0	0	[A, A, A]	3	0	1	3s0x	TYR	691
2	0	0	1	0	0	0	0	0	0	0	0	1	0	1	0	0	0	0	0	0	[A, A, A]	3	0	0	3gia	LEU	3
3	2	1	0	1	0	0	0	0	0	0	0	1	0	0	0	0	1	0	0	0	[A, A, A, A, A, A]	6	0	0	1s4x	TRP	44
4	0	1	1	0	0	0	0	0	0	0	0	0	0	1	0	0	3	0	1	0	[A, A, A, A, A, A, A]	7	0	1	1s4x	ILE	62
5	0	0	0	0	0	1	0	0	0	0	0	0	0	0	0	1	0	0	0	0	[H, H]	2	0	1	2wwb	MET	1
6	0	0	0	0	0	0	2	0	0	1	0	1	0	0	1	0	0	0	0	0	[H, H, H, H, H]	5	0	0	2wwb	ILE	145
7	0	0	0	0	0	1	0	1	0	0	0	0	0	0	0	1	0	0	0	1	[H, H, H, H]	4	0	2	2wwb	TRP	262
8	0	0	0	0	0	0	1	2	0	0	0	1	0	0	1	0	0	0	0	1	[I, I, I, I, I, I]	6	0	0	2wwb	PHE	76
9	0	0	1	0	0	1	0	0	0	1	0	3	0	0	0	0	0	0	0	0	[K, K, K, K, K, K]	6	0	0	2wwb	TYR	93
10	1	1	0	0	0	1	0	0	0	0	0	0	0	0	0	0	0	0	0	1	[N, N, N, N]	4	0	0	2wwb	LEU	69
11	0	2	0	0	0	1	0	0	0	0	1	0	0	0	0	1	0	0	0	1	[A, A, A, A, A, A]	6	0	3	1pv6	LEU	409
12	0	1	0	2	0	0	0	0	0	0	0	0	0	0	0	0	0	0	0	0	[A, A, A]	3	0	2	2ziy	LEU	5
13	0	0	0	0	0	0	2	0	0	0	0	0	0	3	0	1	0	0	0	0	[A, A, A, A, A, A]	6	0	0	3rce	TYR	42
14	0	0	1	1	0	0	1	0	0	1	0	1	0	1	0	0	0	0	1	1	[A, A, A, A, A, A, A, A]	8	0	0	3rce	TYR	649
15	1	1	0	0	0	0	2	1	0	0	0	0	0	0	1	0	1	0	0	1	[A, A, A, A, A, A, A, A]	8	0	2	3rbh	ILE	298
16	1	1	0	1	0	1	1	0	0	0	1	0	0	0	0	0	0	0	0	1	[F, F, F, F, F, F, F]	7	1	2	3fh6	LEU	109
17	1	1	0	1	0	1	1	0	0	0	1	0	0	0	0	0	0	0	0	1	[F, F, F, F, F, F, F]	7	1	2	3fh6	LEU	110
18	0	1	0	0	0	0	0	0	0	0	0	0	0	0	1	0	1	0	0	0	[G, G, G]	3	0	0	3fh6	ILE	74
19	1	1	0	1	0	1	0	0	0	0	0	0	0	0	0	1	0	0	0	0	[A, A, A, A, A]	5	0	1	3fh6	ILE	251
20	1	0	0	1	0	1	0	0	0	0	0	0	0	0	0	1	0	0	0	0	[B, B, B, B]	4	0	1	3fh6	ILE	251
21	0	1	0	0	0	0	2	0	0	1	1	1	0	1	1	0	0	0	0	0	[A, A, A, A, A, A, A, A]	8	0	1	1p49	TYR	524
22	0	0	1	0	0	0	0	0	0	0	0	0	0	0	1	0	1	0	1	1	[B, C, C, C, C]	5	0	2	3jqo	ILE	37
23	0	0	1	0	0	0	0	0	0	0	0	0	0	0	1	0	1	0	1	1	[E, F, F, F, F]	5	0	2	3jqo	ILE	37
24	0	0	1	0	0	0	0	0	0	0	0	0	0	0	1	0	1	0	1	1	[H, I, I, I, I]	5	0	2	3jqo	ILE	37
25	0	0	1	0	0	0	0	0	0	0	0	0	0	0	1	0	1	0	1	1	[K, L, L, L, L]	5	0	2	3jqo	ILE	37
26	0	0	1	0	0	0	0	0	0	0	0	0	0	0	1	0	1	0	1	1	[N, O, O, O, O]	5	0	2	3jqo	ILE	37
27	0	0	1	0	0	0	0	0	0	0	0	0	0	0	1	0	1	0	1	1	[Q, R, R, R, R]	5	0	2	3jqo	ILE	37
28	0	0	1	0	0	0	0	0	0	0	0	0	0	0	1	0	1	0	1	1	[T, U, U, U, U]	5	0	2	3jqo	ILE	37
29	0	0	1	0	0	0	0	0	0	0	0	0	0	0	1	0	1	0	1	1	[W, X, X, X, X]	5	0	2	3jqo	ILE	37
30	0	0	1	0	0	0	0	0	0	0	0	0	0	0	1	0	1	0	1	1	[Z, a, a, a, a]	5	0	2	3jqo	ILE	37
31	0	0	1	0	0	0	0	0	0	0	0	0	0	0	1	0	1	0	1	1	[c, d, d, d, d]	5	0	2	3jqo	ILE	37
32	0	0	1	0	0	0	0	0	0	0	0	0	0	0	1	0	1	0	1	1	[f, g, g, g, g]	5	0	2	3jqo	ILE	37
33	0	0	1	0	0	0	0	0	0	0	0	0	0	0	1	0	1	0	1	1	[i, j, j, j, j]	5	0	2	3jqo	ILE	37
34	0	0	1	0	0	0	0	0	0	0	0	0	0	0	1	0	1	0	1	1	[l, m, m, m, m]	5	0	2	3jqo	ILE	37
35	0	0	1	0	0	0	0	0	0	0	0	0	0	0	1	0	1	0	1	1	[o, p, p, p, p]	5	0	2	3jqo	ILE	37
36	0	1	0	0	0	1	1	0	0	0	0	1	0	1	1	1	0	0	1	0	[C, C, C, C, C, C, C, C]	8	0	0	3nog	TRP	809
37	2	0	0	0	0	0	0	0	0	0	0	0	0	0	0	0	0	1	0	0	[X, X, X]	3	0	0	1uyo	LEU	785
38	0	0	0	0	1	0	0	0	0	0	0	0	0	0	2	0	0	0	0	1	[A, A, A, A]	4	0	0	2wh5	LEU	51
39	1	0	0	1	0	1	0	0	0	0	0	1	0	0	0	0	1	0	0	1	[A, A, A, A, A, A]	6	0	2	2wh5	ILE	96
40	3	0	0	0	0	0	1	0	1	0	0	1	0	0	0	2	0	0	0	0	[A, A, A, A, A, A, A, A]	8	0	1	1q16	LEU	127
41	3	0	0	0	0	0	1	0	1	0	0	1	0	0	0	2	0	0	0	0	[E, E, E, E, E, E, E, E]	8	0	1	1q16	LEU	127
42	1	0	0	1	0	0	0	0	0	0	0	0	0	0	1	2	1	0	0	0	[A, A, A, A, A, A]	6	0	3	2k74	PHE	101
43	0	0	0	1	0	0	0	0	0	0	0	0	1	0	0	1	0	0	0	1	[A, A, A, A]	4	0	1	2k74	PHE	106
44	0	0	0	2	0	0	0	1	0	0	0	0	1	0	0	0	0	0	0	0	[A, A, A, A]	4	1	1	3vma	TYR	770
45	0	1	0	1	0	0	0	2	0	0	0	0	0	0	0	0	0	0	1	1	[A, A, A, A, A, A]	6	1	1	3vma	MET	780
46	1	0	0	0	0	1	0	0	0	0	0	1	0	1	0	1	0	0	0	0	[A, A, A, A, A]	5	0	1	2gif	ILE	658
47	1	0	0	0	0	1	0	0	0	0	0	1	0	1	0	1	0	0	0	0	[B, B, B, B, B]	5	0	1	2gif	ILE	658
48	0	0	0	0	0	1	0	0	0	0	0	1	0	1	0	1	0	0	0	0	[C, C, C, C]	4	0	1	2gif	ILE	658
49	1	0	0	0	0	0	1	0	0	1	0	1	0	0	0	0	0	0	0	0	[A, A, A, A]	4	0	0	3bo0	TYR	375
50	0	0	0	1	0	0	1	0	0	0	0	0	1	1	0	1	0	0	0	2	[A, A, A, A, A, A, A]	7	0	1	1lv7	PHE	224
51	0	0	1	0	0	0	0	0	0	0	0	1	0	0	0	2	0	0	0	2	[A, A, A, A, A, A]	6	0	1	2leg	PHE	129
52	0	1	1	0	0	0	0	0	0	0	2	0	0	0	1	0	0	0	0	2	[A, A, A, A, A, A, A]	7	0	1	2yd0	ILE	590
53	0	1	0	0	0	1	2	0	0	0	0	1	0	0	0	1	0	0	0	0	[A, A, A, A, A, A]	6	0	1	2yd0	LEU	938
54	1	1	0	0	0	0	2	0	1	0	0	1	0	1	0	0	0	0	0	0	[A, A, A, A, A, A, A]	7	0	0	2j0k	LEU	113
55	0	1	0	0	0	0	0	0	0	0	1	1	0	0	0	1	0	0	0	0	[A, A, A, A]	4	0	1	2j0k	PHE	516
56	0	0	0	0	0	1	3	0	0	0	0	1	0	0	0	0	0	0	0	0	[A, A, A, A, A]	5	0	1	2j0k	LEU	685
57	0	0	0	0	0	0	0	1	0	0	0	0	0	0	2	1	0	0	0	0	[A, A, A, A]	4	0	1	1rer	TYR	24
58	1	0	0	0	2	0	0	2	0	0	0	0	1	1	0	0	0	1	0	0	[A, A, A, A, A, A, A, A]	8	1	1	1rer	TYR	93
59	1	0	0	1	3	0	1	0	0	0	0	0	0	0	0	0	0	0	1	0	[A, A, A, A, A, A, A]	7	1	1	1rer	PHE	95
60	0	0	0	0	0	0	0	1	1	0	0	0	0	0	1	0	0	0	0	1	[A, A, A, A]	4	0	0	1rer	MET	228
61	0	0	0	0	0	0	0	1	0	0	0	0	0	0	2	1	0	0	0	0	[B, B, B, B]	4	0	1	1rer	TYR	24
62	0	0	0	0	0	0	0	1	0	0	0	0	0	0	2	1	0	0	0	0	[C, C, C, C]	4	0	1	1rer	TYR	24
63	2	0	0	0	0	0	0	1	0	0	0	0	0	0	0	1	1	1	0	0	[X, X, X, X, X, X]	6	0	1	1uyn	LEU	972
64	1	0	0	0	0	0	1	0	0	0	0	1	0	0	0	0	0	0	0	1	[5, 5, 5, 5]	4	0	1	3j01	PHE	38
65	0	2	0	1	0	0	0	0	0	0	0	0	0	0	1	0	0	0	0	0	[F, F, F, F]	4	0	1	3j01	ILE	110
66	2	1	0	0	0	0	2	1	0	0	0	1	0	0	0	0	0	0	0	0	[O, O, O, O, O, O, O]	7	0	0	3j01	LEU	83
67	0	1	1	0	0	0	1	0	0	0	0	0	0	0	0	0	0	0	0	0	[P, P, P]	3	0	0	3j01	LEU	113
68	1	1	0	0	0	0	0	0	0	0	1	0	0	0	0	0	2	0	0	0	[B, B, D, D, D]	5	0	0	4dbl	MET	1
69	0	0	0	2	1	0	0	1	0	0	0	1	0	0	1	1	0	0	0	1	[A, A, A, A, A, A, A, A]	8	0	2	1t5s	PHE	376
70	1	1	0	0	0	1	1	0	0	0	1	0	0	0	1	0	0	0	0	0	[A, A, A, A, A, A]	6	0	2	1t5s	LEU	663
71	0	0	0	0	0	0	0	1	0	0	1	0	0	1	0	1	1	0	0	0	[A, A, E, E, E]	5	0	0	3rgb	MET	414
72	0	0	0	0	0	0	0	1	0	0	1	0	0	1	0	1	1	0	0	0	[E, E, I, I, I]	5	0	0	3rgb	MET	414
73	0	0	0	0	0	0	0	1	0	0	1	0	0	1	0	1	1	0	0	0	[A, A, A, I, I]	5	0	0	3rgb	MET	414
74	0	1	0	0	0	0	0	2	1	0	0	1	0	0	0	0	0	0	0	0	[A, A, A, A, A]	5	0	1	3dkn	ILE	240
75	2	0	0	0	0	0	0	1	0	1	1	1	0	0	0	0	0	0	0	0	[A, A, A, A, A, A]	6	0	2	3dkn	MET	354
76	0	0	0	0	0	0	1	0	1	0	0	1	0	0	1	1	0	0	0	1	[A, A, A, A, A, A]	6	0	1	3dkn	LEU	424
77	0	1	0	0	0	0	0	1	0	0	0	0	0	0	0	1	1	0	0	0	[A, A, A, A]	4	0	0	2or8	TYR	24
78	0	1	0	2	0	0	0	1	0	1	0	0	0	0	0	0	0	0	2	0	[A, A, A, A, A, A, A]	7	0	0	1i78	ILE	160
79	0	0	1	1	0	0	0	0	0	0	1	1	0	0	0	3	1	0	0	0	[A, A, A, A, A, A, A, A]	8	0	1	1i78	TYR	275
80	0	0	2	0	0	0	0	1	0	0	0	0	0	1	0	0	1	0	0	0	[A, A, A, A, A]	5	0	1	3qlb	TYR	490
81	0	0	1	0	0	0	1	0	0	0	0	1	0	0	1	0	0	0	0	0	[A, A, A, A]	4	0	1	3qlb	LEU	583
82	0	0	0	1	0	0	0	0	0	1	0	0	0	1	0	1	0	0	0	0	[A, A, A, A]	4	1	1	3qra	LEU	89
83	0	0	0	0	0	1	0	1	0	0	1	0	0	0	0	1	0	0	0	0	[A, A, A, A]	4	1	2	3qra	PHE	130
84	0	1	1	1	0	0	1	0	0	0	0	1	0	0	0	0	0	0	1	0	[A, A, A, A, A, A]	6	0	1	1rz2	TYR	40
85	0	0	0	2	1	0	0	1	0	0	0	1	0	0	1	1	0	0	0	1	[A, A, A, A, A, A, A, A]	8	0	2	1xp5	PHE	376
86	0	0	0	0	0	0	1	1	2	0	0	0	0	0	1	0	0	0	0	0	[A, A, A, A, A]	5	0	2	1xp5	PHE	883
87	0	0	0	2	0	0	1	1	0	0	0	0	0	0	0	0	0	0	0	0	[A, A, A, A]	4	0	1	1xp5	LEU	886
88	1	3	0	0	0	0	0	1	0	0	0	1	0	0	0	0	0	0	0	0	[A, A, A, A, A, A]	6	0	1	3csl	LEU	541
89	0	1	0	0	0	1	0	0	0	0	0	0	0	0	1	0	0	0	1	0	[A, A, A, A]	4	1	1	3rze	LEU	133
90	0	2	0	0	0	0	0	0	0	0	2	1	0	0	0	0	0	0	0	0	[A, A, A, A, A]	5	1	1	3rze	TYR	135
91	0	0	0	0	0	1	0	0	1	0	1	0	0	0	0	0	0	0	0	0	[A, A, A]	3	0	0	3rze	CYS	221
92	0	0	1	0	0	1	1	1	0	0	1	1	0	0	1	0	0	0	1	0	[A, A, A, A, A, A, A, A]	8	0	1	2olv	TYR	630
93	0	1	1	0	0	1	0	1	0	1	1	0	0	1	1	0	0	0	0	0	[A, A, A, A, A, A, A, A]	8	0	1	1xkw	LEU	401
94	1	0	0	1	0	0	1	0	0	0	1	0	1	0	0	2	0	0	0	0	[B, B, B, B, B, B, B]	7	0	2	1v55	LEU	227
95	1	0	0	1	0	0	1	0	0	0	1	0	1	0	0	2	0	0	0	0	[O, O, O, O, O, O, O]	7	0	2	1v55	LEU	227
96	0	2	0	1	0	0	0	0	0	0	1	0	0	0	0	1	0	0	0	1	[A, A, A, A, A, A]	6	1	3	4ea3	LEU	247
97	0	1	0	0	0	0	0	2	0	0	1	0	0	0	0	1	0	0	0	1	[A, A, A, A, A, A]	6	1	1	4ea3	LEU	248
98	0	0	0	0	0	2	1	0	0	0	0	0	1	0	1	0	0	0	0	0	[A, A, A, A, A]	5	1	3	4aip	MET	416
99	1	1	0	1	0	2	1	0	0	0	0	1	1	0	0	0	0	0	0	0	[A, A, A, A, A, A, A, A]	8	1	2	4aip	MET	420
100	0	0	2	0	0	1	1	1	0	0	0	1	0	0	0	0	0	0	0	0	[A, A, A, A, A, A]	6	0	1	4aip	LEU	677
101	1	1	0	1	0	2	0	0	0	0	0	1	0	0	0	0	0	0	0	0	[B, B, B, B, B, B]	6	0	1	4aip	MET	420
102	0	0	2	0	0	1	1	1	0	0	0	1	0	0	0	0	0	0	0	0	[B, B, B, B, B, B]	6	0	1	4aip	LEU	677
103	1	1	0	1	0	2	1	0	0	0	0	1	0	0	0	0	0	0	0	0	[C, C, C, C, C, C, C]	7	0	2	4aip	MET	420
104	0	0	0	0	0	0	1	1	2	0	0	0	0	0	1	0	0	0	0	0	[A, A, A, A, A]	5	0	2	3fps	PHE	883
105	0	0	0	1	0	0	1	1	0	0	0	0	0	0	0	0	0	0	0	0	[A, A, A]	3	0	1	3fps	LEU	886
106	0	1	1	0	0	0	1	0	0	1	0	0	0	1	0	0	0	0	0	0	[C, C, C, C, C]	5	0	0	2qts	TYR	123
107	0	0	1	0	0	0	0	0	0	1	0	0	0	1	1	0	0	0	0	1	[A, A, A, A, A]	5	0	1	2k21	TYR	81
108	1	1	0	0	0	1	1	0	0	0	0	1	0	0	0	1	0	0	1	1	[A, A, A, A, A, A, A, A]	8	0	2	2k21	LEU	100
109	0	0	0	1	0	1	0	0	0	0	1	2	0	0	0	0	0	0	1	1	[B, B, B, B, B, B, B]	7	0	0	2bg9	TRP	428
110	2	0	1	0	1	0	1	0	0	1	0	1	0	0	0	1	0	0	0	0	[E, E, E, E, E, E, E, E]	8	0	0	2bg9	PHE	421
111	0	0	2	0	0	0	2	0	0	1	1	0	0	0	0	0	0	0	0	1	[E, E, E, E, E, E, E]	7	0	0	2bg9	TRP	439
112	0	0	0	2	1	0	0	1	0	0	0	1	0	0	1	1	0	0	0	1	[A, A, A, A, A, A, A, A]	8	0	2	3b9b	PHE	376
113	0	1	0	0	0	1	1	1	0	0	0	0	0	0	0	1	0	0	0	0	[D, D, D, D, D]	5	0	1	3pjv	TRP	125
114	0	1	0	0	0	1	1	1	0	0	0	0	0	0	0	1	0	0	0	0	[F, F, F, F, F]	5	0	1	3pjv	TRP	125
115	0	0	1	0	1	1	0	1	0	0	0	0	0	1	0	1	1	0	0	0	[B, B, B, B, B, B, B]	7	0	0	3v8x	LEU	182
116	1	1	0	1	0	0	0	1	0	0	0	0	0	0	0	1	0	0	2	0	[A, A, A, A, A, A, A]	7	0	1	2guf	TYR	284
117	0	0	0	1	0	0	1	2	0	0	0	0	0	0	0	0	2	0	0	1	[A, A, A, A, A, A, A]	7	0	1	2guf	TYR	328
118	1	0	1	1	0	0	0	1	0	0	0	1	0	0	0	0	1	0	0	0	[A, A, A, A, A, A]	6	0	1	2guf	ILE	490
119	0	0	0	0	0	0	0	0	0	0	0	0	0	0	1	2	0	0	2	0	[A, A, A, A, A]	5	0	3	2guf	TYR	534
120	1	0	0	1	0	0	1	0	0	0	0	1	0	0	0	0	1	0	0	3	[C, C, C, C, C, C, C, C]	8	0	1	3tlw	LEU	146
121	0	0	1	0	0	0	0	0	0	0	0	1	0	0	0	2	0	0	0	2	[B, B, B, B, B, B]	6	0	1	3e9j	PHE	129
122	1	0	0	1	1	0	0	1	1	0	0	0	0	0	0	0	0	1	1	0	[A, A, A, A, A, A, A]	7	0	0	1p33	MET	98
123	0	0	0	0	0	1	1	0	0	0	0	0	1	0	1	1	0	0	0	1	[A, A, A, A, A, A]	6	0	2	1p33	PHE	235
124	0	0	0	0	0	1	1	0	0	0	0	0	0	0	1	1	0	0	0	1	[B, B, B, B, B]	5	0	2	1p33	PHE	235
125	0	0	0	0	0	1	1	0	0	0	0	0	0	0	1	1	0	0	0	1	[D, D, D, D, D]	5	0	2	1p33	PHE	235
126	1	0	0	1	0	1	1	0	0	0	0	0	0	0	0	1	1	0	0	0	[A, A, A, A, A, A]	6	0	0	3puw	ILE	251
127	1	0	0	1	0	0	0	0	0	0	1	0	0	0	1	1	0	0	0	0	[A, A, A, A, A]	5	0	1	3puw	ILE	295
128	1	0	0	1	0	1	0	0	0	0	0	0	0	0	0	0	0	0	0	0	[B, B, B]	3	0	0	3puw	ILE	251
129	0	0	1	0	0	0	0	1	0	0	0	1	0	0	0	1	1	0	0	0	[A, A, A, A, A]	5	0	1	3pqr	MET	1
130	0	0	1	0	0	0	0	1	0	0	0	1	0	1	0	0	1	0	0	0	[A, A, A, A, A]	5	0	0	2ao7	ILE	539
131	0	0	0	0	0	0	1	0	0	0	0	2	0	0	1	0	0	0	0	0	[A, A, A, A]	4	0	1	2ao7	MET	602
132	0	1	1	1	1	0	0	1	0	0	0	0	0	0	1	0	0	0	0	0	[A, A, A, A, A, A]	6	0	2	2ao7	PHE	635
133	0	1	0	0	0	0	1	0	0	0	0	0	0	0	1	1	0	0	0	0	[A, A, A, A]	4	0	0	1ap9	MET	163
134	0	1	0	0	0	0	1	0	0	0	0	0	0	0	1	1	0	0	0	0	[A, A, A, A]	4	0	0	1ap9	MET	163
135	0	1	0	0	0	0	1	0	0	0	0	0	0	0	1	1	0	0	0	0	[A, A, A, A]	4	0	0	1ap9	MET	163
136	0	2	0	0	0	0	0	0	0	0	0	0	0	1	2	0	0	0	0	1	[A, A, A, A, A, A]	6	0	1	2bhv	ILE	364
137	1	1	0	1	0	0	0	1	0	0	0	0	0	0	0	1	0	0	0	0	[A, A, A, A, A]	5	0	0	2ysu	TYR	284
138	1	3	1	0	0	0	1	0	0	0	0	1	0	0	0	0	0	0	0	0	[B, B, B, B, B, B, B]	7	0	2	2ysu	TYR	323
139	0	0	0	0	0	0	0	0	2	0	0	3	0	0	0	0	0	1	1	0	[J, J, J, J, J, J, J]	7	1	1	2fyu	ILE	55
140	0	0	1	0	0	0	1	0	1	1	0	2	0	0	0	0	0	0	0	0	[J, J, J, J, J, J]	6	1	1	2fyu	TYR	59
141	0	0	0	0	0	0	0	0	2	0	0	3	0	0	0	0	0	1	1	0	[J, J, J, J, J, J, J]	7	1	1	2fyu	ILE	55
142	0	0	1	0	0	0	1	0	1	1	0	2	0	0	0	0	0	0	0	0	[J, J, J, J, J, J]	6	1	1	2fyu	TYR	59
143	0	1	0	0	0	0	0	2	0	0	0	0	0	1	0	0	0	0	0	2	[A, A, A, A, A, A]	6	0	1	2xmn	LEU	148
144	0	1	0	0	0	0	0	2	0	0	0	0	0	1	0	0	0	0	0	2	[B, B, B, B, B, B]	6	0	1	2xmn	LEU	148
145	0	1	0	0	0	0	0	2	0	0	0	0	0	1	0	0	0	0	0	2	[C, C, C, C, C, C]	6	0	1	2xmn	LEU	148
146	0	0	0	1	0	0	1	1	0	0	1	2	0	0	0	0	0	0	0	0	[A, A, A, A, A, A]	6	0	1	3qrc	TYR	46
147	0	0	0	0	0	0	0	1	0	1	1	0	0	1	0	1	0	0	0	0	[A, A, A, A, A]	5	1	1	3qrc	ILE	129
148	0	0	0	0	0	1	0	1	0	1	0	0	0	0	0	1	0	0	0	0	[A, A, A, A]	4	1	1	3qrc	PHE	130
149	1	0	0	0	0	0	0	0	0	0	2	0	0	0	0	1	0	0	0	0	[B, B, B, B]	4	0	1	1om2	TYR	10
150	0	0	0	0	0	0	0	1	0	0	1	0	0	1	0	1	1	0	0	0	[A, A, E, E, E]	5	0	0	1yew	MET	414
151	0	0	0	0	0	0	2	0	2	0	0	0	1	2	0	0	1	0	0	0	[B, C, C, C, C, C, C, C]	8	0	1	1yew	TRP	234
152	0	0	0	0	0	0	0	1	0	0	1	0	0	1	0	1	1	0	0	0	[E, E, I, I, I]	5	0	0	1yew	MET	414
153	0	0	0	0	0	0	2	0	2	0	0	0	1	2	0	0	1	0	0	0	[F, G, G, G, G, G, G, G]	8	0	1	1yew	TRP	234
154	0	0	0	0	0	0	0	1	0	0	1	0	0	1	0	1	1	0	0	0	[A, A, A, I, I]	5	0	0	1yew	MET	414
155	0	0	0	0	0	0	2	0	2	0	0	0	1	2	0	0	1	0	0	0	[J, K, K, K, K, K, K, K]	8	0	1	1yew	TRP	234
156	0	0	1	1	0	0	1	1	0	0	0	0	0	0	0	0	0	0	0	0	[C, C, C, C]	4	0	1	2d2c	TYR	190
157	0	0	0	0	0	0	0	0	0	0	1	1	0	0	0	0	0	0	0	0	[E, E]	2	0	0	2d2c	ILE	32
158	0	0	1	1	0	0	1	1	0	0	0	0	0	0	0	0	0	0	0	0	[P, P, P, P]	4	0	1	2d2c	TYR	190
159	0	0	0	0	0	0	0	0	0	0	1	1	0	0	0	0	0	0	0	0	[R, R]	2	0	0	2d2c	ILE	32
160	0	2	1	0	0	1	0	0	0	0	0	0	0	0	0	0	1	0	0	0	[A, A, A, A, A]	5	0	1	2h8a	LEU	38
161	0	0	1	0	0	0	0	0	0	0	0	1	0	0	0	0	0	0	0	1	[A, A, A]	3	0	1	2h8a	PHE	43
162	0	1	0	0	0	0	1	0	0	0	0	0	0	0	0	0	1	0	0	0	[A, A, A]	3	0	0	2h8a	LEU	62
163	0	2	1	0	0	1	0	0	0	0	0	0	0	0	0	0	1	0	0	0	[B, B, B, B, B]	5	0	1	2h8a	LEU	38
164	0	0	1	0	0	0	0	0	0	0	0	1	0	0	0	0	0	0	0	1	[B, B, B]	3	0	1	2h8a	PHE	43
165	0	1	0	0	0	0	1	0	0	0	0	0	0	0	0	0	1	0	0	0	[B, B, B]	3	0	0	2h8a	LEU	62
166	0	2	1	0	0	1	0	0	0	0	0	0	0	0	0	0	1	0	0	0	[C, C, C, C, C]	5	0	1	2h8a	LEU	38
167	0	0	1	0	0	0	0	0	0	0	0	1	0	0	0	0	0	0	0	1	[C, C, C]	3	0	1	2h8a	PHE	43
168	0	1	0	0	0	0	1	0	0	0	0	0	0	0	0	0	1	0	0	0	[C, C, C]	3	0	0	2h8a	LEU	62
169	1	1	0	0	0	1	1	0	0	0	1	0	0	0	1	0	0	0	0	0	[A, A, A, A, A, A]	6	0	2	2c9m	LEU	663
170	0	0	1	0	0	0	0	0	0	0	0	1	0	0	0	2	0	0	0	2	[A, A, A, A, A, A]	6	0	0	2zup	PHE	129
171	0	0	0	2	1	0	0	1	0	0	0	1	0	0	1	1	0	0	0	2	[A, A, A, A, A, A, A, A, A]	9	0	2	3n5k	PHE	376
172	0	0	0	0	0	1	2	0	0	0	0	1	0	0	1	0	1	0	0	1	[A, A, A, A, A, A, A]	7	0	3	2b6p	LEU	258
173	0	0	0	0	0	1	2	0	0	0	0	1	0	0	1	0	1	0	0	1	[B, B, B, B, B, B, B]	7	0	3	2b6p	LEU	258
174	0	0	0	0	0	1	2	0	0	0	0	1	0	0	1	0	1	0	0	1	[C, C, C, C, C, C, C]	7	0	3	2b6p	LEU	258
175	0	0	0	0	0	1	2	0	0	0	0	1	0	0	1	0	1	0	0	1	[D, D, D, D, D, D, D]	7	0	3	2b6p	LEU	258
176	1	0	1	0	1	0	0	0	0	0	0	0	0	0	0	0	0	0	0	0	[C, C, C]	3	0	1	2ghv	LEU	472
177	1	1	1	0	0	0	0	1	1	0	0	1	0	0	1	0	0	0	0	1	[A, A, A, A, A, A, A, A]	8	0	2	3efm	TRP	258
178	1	0	0	0	0	0	0	0	0	0	0	0	0	1	0	1	0	0	1	0	[A, A, A, A]	4	0	0	3efm	MET	348
179	0	0	0	2	1	0	0	1	0	0	0	1	0	0	1	1	0	0	0	1	[A, A, A, A, A, A, A, A]	8	0	2	3ba6	PHE	376
180	1	1	0	0	0	1	1	0	0	0	1	0	0	0	1	0	0	0	0	0	[A, A, A, A, A, A]	6	0	2	3ba6	LEU	663
181	0	0	0	1	0	0	1	1	0	0	0	0	0	0	0	0	0	0	0	0	[A, A, A]	3	0	1	3ba6	LEU	886
182	0	1	0	1	0	0	0	2	0	0	1	0	0	0	0	0	0	0	0	0	[A, A, A, A, A]	5	0	0	2fgq	ILE	232
183	0	1	0	1	0	0	0	2	0	0	1	0	0	0	0	0	0	0	0	0	[A, A, A, A, A]	5	0	0	2fgq	ILE	232
184	0	1	0	1	0	0	0	2	0	0	1	0	0	0	0	0	0	0	0	0	[A, A, A, A, A]	5	0	0	2fgq	ILE	232
185	0	0	1	0	0	0	1	0	0	1	0	1	0	0	0	0	1	0	1	0	[A, A, A, A, A, A]	6	0	1	2mpr	ILE	266
186	0	0	1	0	0	0	1	0	0	1	0	1	0	0	0	0	1	0	1	0	[B, B, B, B, B, B]	6	0	1	2mpr	ILE	266
187	0	0	1	0	0	0	1	0	0	1	0	1	0	0	0	0	1	0	1	0	[C, C, C, C, C, C]	6	0	1	2mpr	ILE	266
188	0	0	0	0	0	0	0	0	2	0	0	0	0	0	2	1	0	0	0	2	[A, A, A, B, B, B, B]	7	0	1	3um7	CYS	78
189	1	0	0	0	0	0	0	0	1	0	1	1	0	0	0	0	1	0	0	0	[A, A, A, A, A]	5	0	1	4k3c	PHE	287
190	0	0	0	0	0	1	0	1	0	0	0	0	0	0	2	0	0	0	0	0	[A, A, A, A]	4	0	2	3pwh	LEU	216
191	0	0	1	0	0	0	1	0	0	0	0	1	0	0	1	0	2	0	1	0	[A, A, A, A, A, A, A]	7	0	3	1qj8	TYR	98
192	1	0	0	0	0	0	1	0	0	0	0	1	0	1	0	0	0	0	0	0	[A, A, A, A]	4	0	1	1k24	LEU	26
193	0	0	2	0	0	0	0	0	0	1	0	2	0	0	0	0	0	0	0	0	[A, A, A, A, A]	5	0	1	1k24	ILE	63
194	0	1	0	0	0	0	0	2	1	0	0	1	0	0	0	0	0	0	0	1	[A, A, A, A, A, A]	6	0	2	2yxq	ILE	240
195	2	1	0	0	0	0	0	1	0	1	0	2	0	0	0	0	0	0	0	0	[A, A, A, A, A, A, A]	7	0	0	2yxq	PHE	359
196	0	0	0	0	0	0	1	0	1	0	0	1	0	0	1	1	0	0	0	1	[A, A, A, A, A, A]	6	0	1	2yxq	LEU	426
197	0	1	0	0	0	1	0	1	0	0	0	0	0	0	0	0	1	0	0	0	[A, A, A, A]	4	0	1	2qdz	TYR	298
198	0	1	0	1	0	0	0	0	0	0	0	0	0	0	0	0	1	0	0	1	[A, A, A, A]	4	0	1	2qdz	LEU	346
199	0	0	0	0	0	1	0	0	0	0	0	0	0	1	1	0	0	0	0	1	[B, B, B, B]	4	0	0	2zd9	LEU	235
200	0	0	0	0	0	1	0	0	0	0	0	1	0	0	0	0	0	0	0	0	[B, B]	2	0	1	2zd9	LEU	239
201	0	0	0	0	0	1	0	0	0	0	0	1	0	1	1	0	0	0	0	1	[C, C, C, C, C]	5	0	2	2zd9	LEU	235
202	0	0	0	0	0	1	0	0	0	0	0	1	0	0	0	0	0	0	0	0	[C, C]	2	0	1	2zd9	LEU	239
203	1	0	0	0	0	0	0	0	0	0	0	1	0	0	0	0	0	0	0	1	[H, H, H]	3	0	1	1dxr	LEU	52
204	0	0	0	0	0	0	1	0	0	0	0	1	1	1	0	0	0	0	1	0	[A, A, A, A, A]	5	0	0	4h56	TYR	291
205	0	0	0	0	0	0	1	0	0	0	0	1	1	1	0	0	0	0	1	0	[B, B, B, B, B]	5	0	0	4h56	TYR	291
206	0	0	0	0	0	0	1	0	0	0	0	1	1	1	0	0	0	0	1	0	[C, C, C, C, C]	5	0	0	4h56	TYR	291
207	0	0	0	0	0	0	1	0	0	0	0	1	1	1	0	0	0	0	1	0	[D, D, D, D, D]	5	0	0	4h56	TYR	291
208	0	0	0	0	0	0	1	0	0	0	0	1	1	1	0	0	0	0	1	0	[E, E, E, E, E]	5	0	0	4h56	TYR	291
209	0	0	0	0	0	0	1	0	0	0	0	1	1	1	0	0	0	0	1	0	[F, F, F, F, F]	5	0	0	4h56	TYR	291
210	0	1	2	0	0	0	0	0	0	0	0	0	0	0	2	0	0	0	0	0	[A, A, A, A, A]	5	0	1	3n1f	TYR	85
211	0	1	0	0	0	0	0	0	0	0	0	0	0	0	0	2	1	0	0	0	[A, A, A, A]	4	0	1	4frt	TYR	79
212	2	1	1	0	0	0	2	0	0	0	0	1	0	0	0	0	0	1	0	0	[A, A, A, A, A, A, A, A]	8	0	1	3din	ILE	171
213	1	0	1	0	0	0	2	0	0	0	0	1	0	0	0	1	0	0	0	0	[A, A, A, A, A, A]	6	0	2	3din	MET	192
214	0	0	1	1	0	0	2	0	0	1	0	1	0	0	0	1	0	0	0	0	[A, A, A, A, A, A, A]	7	0	0	3din	TRP	693
215	0	0	0	2	0	0	1	0	0	0	0	0	0	1	0	0	0	0	0	0	[A, A, A, A]	4	0	0	3din	LEU	712
216	0	0	0	0	0	1	0	0	0	0	0	2	0	0	0	2	0	0	0	0	[A, A, A, A, A]	5	0	2	3din	PHE	717
217	0	0	0	2	1	0	0	1	0	1	1	0	0	0	1	0	0	0	0	0	[A, A, A, A, A, A, A]	7	0	2	3tlm	LEU	376
218	1	1	0	0	0	1	1	0	0	0	1	0	0	0	1	0	0	0	0	0	[A, A, A, A, A, A]	6	0	2	3tlm	LEU	662
219	0	0	0	1	0	0	1	0	0	0	0	0	0	0	0	0	0	0	0	1	[A, A, A]	3	0	0	3tlm	CYS	887
220	0	0	1	0	0	1	0	1	1	1	0	0	0	0	0	0	0	0	0	0	[A, A, A, A, A]	5	0	0	3oj2	TYR	140
221	0	0	0	0	0	1	0	1	0	0	0	0	0	0	2	0	0	0	0	0	[A, A, A, A]	4	0	2	3uza	LEU	216
222	0	0	1	0	0	0	2	0	0	1	0	1	0	0	0	0	0	0	0	0	[A, A, A, A, A]	5	0	1	1pw4	TYR	223
223	0	0	0	0	0	1	1	0	0	0	2	0	0	0	1	0	0	0	0	1	[A, A, A, A, A, A]	6	0	2	1pw4	LEU	449
224	0	0	0	0	0	0	0	2	0	0	0	1	0	0	0	0	0	0	0	1	[A, A, A, A]	4	0	0	1u7g	PHE	188
225	0	0	0	0	0	0	0	2	0	0	0	1	0	0	0	0	0	0	0	1	[B, B, B, B]	4	0	0	1u7g	PHE	188
226	0	0	0	0	0	0	0	2	0	0	0	1	0	0	0	0	0	0	0	1	[C, C, C, C]	4	0	0	1u7g	PHE	188
227	0	2	0	0	0	0	1	0	0	0	1	0	0	0	0	0	0	0	0	0	[A, A, A, A]	4	0	1	1c3i	TYR	136
228	2	0	0	0	0	0	2	1	0	0	1	0	0	0	0	1	0	0	0	0	[A, A, A, A, A, A, A]	7	0	0	2xfn	LEU	375
229	2	0	0	0	0	0	2	1	0	0	1	0	0	0	0	1	0	0	0	0	[B, B, B, B, B, B, B]	7	0	0	2xfn	LEU	375
230	1	1	0	1	0	1	1	0	0	0	0	0	1	0	0	0	0	0	0	0	[A, A, A, A, A, A]	6	0	1	1kqf	LEU	880
231	0	0	0	0	0	0	2	1	0	0	0	0	0	0	0	1	0	0	0	0	[C, C, C, C]	4	0	1	1kqf	ILE	217
232	1	1	0	1	0	1	1	0	0	0	0	0	1	0	0	0	0	0	0	0	[E, E, E, E, E, E]	6	0	1	1kqf	LEU	880
233	0	0	0	0	0	0	2	1	0	0	0	0	0	0	0	1	0	0	0	0	[F, F, F, F]	4	0	1	1kqf	ILE	217
234	1	1	0	1	0	1	1	0	0	0	0	0	1	0	0	0	0	0	0	0	[G, G, G, G, G, G]	6	0	1	1kqf	LEU	880
235	0	0	0	0	0	0	2	1	0	0	0	0	0	0	0	1	0	0	0	0	[I, I, I, I]	4	0	1	1kqf	ILE	217
236	2	0	0	0	0	0	0	1	1	0	2	0	0	0	0	0	0	0	0	0	[A, A, A, A, A, A]	6	1	1	2nwl	ILE	113
237	2	0	0	0	0	0	0	1	1	1	0	0	0	0	0	0	0	0	0	1	[A, A, A, A, A, A]	6	1	2	2nwl	LEU	115
238	2	0	0	0	0	0	0	1	1	0	2	0	0	0	0	0	0	0	0	0	[B, B, B, B, B, B]	6	0	0	2nwl	ILE	113
239	2	0	0	0	0	0	0	1	1	0	2	0	0	0	0	0	0	0	0	0	[C, C, C, C, C, C]	6	1	1	2nwl	ILE	113
240	2	0	0	0	0	0	0	1	1	1	0	0	0	0	0	0	0	0	0	1	[C, C, C, C, C, C]	6	1	1	2nwl	LEU	115
241	0	0	0	0	0	0	1	0	0	0	0	3	0	0	0	0	0	0	0	0	[A, A, A, A]	4	0	2	2l8s	MET	44
242	0	1	0	0	0	0	1	0	0	1	1	2	0	0	0	1	0	0	0	0	[A, A, A, A, A, A, A]	7	0	3	2klu	LEU	414
243	0	0	0	0	0	0	0	0	0	0	0	0	0	0	1	1	0	0	0	0	[A, A]	2	0	1	2klu	ILE	433
244	0	2	0	0	0	1	0	0	0	0	0	0	0	0	0	0	0	0	0	0	[A, A, A]	3	0	1	3qak	LEU	208
245	1	1	0	0	0	1	1	1	0	0	0	0	0	0	0	0	0	0	0	0	[A, A, A, A, A]	5	0	0	3k3f	PHE	2
246	1	1	0	0	0	1	1	1	0	0	0	0	0	0	0	0	0	0	0	0	[K, K, K, K, K]	5	0	0	3k3f	PHE	2
247	1	1	0	0	0	1	1	1	0	0	0	0	0	0	0	0	0	0	0	0	[U, U, U, U, U]	5	0	0	3k3f	PHE	2
248	0	0	0	1	0	0	0	0	0	0	0	1	0	1	1	0	1	0	0	0	[A, A, A, A, A]	5	0	2	3g9w	PHE	196
249	1	0	1	0	0	0	2	0	0	0	0	2	0	0	0	0	0	0	0	0	[D, D, D, D, D, D]	6	0	0	3g9w	MET	771
250	0	0	2	0	0	0	0	0	0	0	0	0	0	0	1	1	0	0	0	0	[D, D, D, D]	4	0	0	3g9w	ILE	787
251	0	2	0	2	0	2	0	1	0	0	0	0	0	0	0	1	0	0	0	0	[A, A, A, A, A, A, A, A]	8	0	1	2wjr	MET	122
252	0	0	0	1	0	0	1	0	0	1	0	1	0	0	0	0	0	0	0	0	[A, A, A, A]	4	1	1	3b8c	LEU	14
253	0	0	0	0	0	1	2	0	0	1	1	1	0	0	1	0	0	0	0	0	[A, A, A, A, A, A, A]	7	1	2	3b8c	ILE	17
254	0	0	0	0	1	2	1	0	0	0	1	1	0	0	0	0	0	0	0	1	[A, A, A, A, A, A, A]	7	1	2	3b8c	PHE	23
255	0	1	0	0	0	1	0	0	0	0	1	1	0	1	0	1	0	0	0	1	[A, A, A, A, A, A, A]	7	1	2	3b8c	CYS	28
256	0	0	0	1	0	0	1	0	0	0	0	0	0	0	1	1	0	0	0	1	[A, A, A, A, A]	5	0	1	3b8c	LEU	186
257	0	0	0	0	0	0	1	0	0	0	0	1	0	1	0	0	0	0	0	1	[A, A, A, A]	4	0	1	3b8c	CYS	350
258	1	1	0	1	0	0	1	1	0	1	0	0	0	0	0	0	0	0	1	0	[A, A, A, A, A, A, A]	7	0	0	3b8c	ILE	392
259	0	0	1	0	0	0	0	0	0	0	0	0	1	0	1	2	0	0	0	0	[A, A, A, A, A]	5	0	1	3b8c	TYR	532
260	1	0	1	0	0	0	0	1	0	0	1	0	1	0	0	0	0	0	0	0	[B, B, B, B, B]	5	0	1	3rfz	LEU	84
261	0	1	1	0	0	0	0	2	0	0	0	0	0	0	0	0	0	0	0	0	[B, B, B, B]	4	0	0	3rfz	ILE	155
262	0	3	0	0	0	0	1	1	0	0	0	0	0	1	0	0	0	0	0	1	[C, C, C, C, C, C, C]	7	0	1	3rfz	MET	204
263	1	0	0	0	0	1	0	0	0	1	0	0	0	0	1	0	0	0	0	1	[A, A, A, A, A]	5	0	0	1t7d	ILE	242
264	0	0	1	0	0	0	0	0	0	0	0	0	0	1	0	0	2	0	1	0	[A, A, A, A, A]	5	1	2	2ljf	ILE	757
265	0	1	1	0	0	0	0	1	0	1	0	0	0	0	0	0	3	0	0	0	[A, A, A, A, A, A, A]	7	1	4	2ljf	TYR	759
266	0	2	0	0	0	0	0	1	0	0	0	0	0	1	1	0	0	0	0	0	[A, A, A, A, A]	5	1	1	3mp7	ILE	388
267	0	2	0	1	0	0	0	1	0	1	0	0	0	0	1	0	0	0	0	0	[A, A, A, A, A, A]	6	1	1	3mp7	PHE	391
268	0	0	0	0	0	0	1	0	0	0	0	0	0	0	0	1	2	0	0	0	[C, C, C, C]	4	0	0	3dhw	LEU	72
269	0	0	0	0	0	0	1	0	0	0	0	0	0	0	0	1	2	0	0	0	[D, D, D, D]	4	0	1	3dhw	LEU	72
270	0	0	0	0	0	1	1	0	0	0	0	0	0	1	1	1	0	0	1	0	[B, B, B, B, B, B]	6	0	2	2xzb	PHE	138
271	0	0	1	0	0	0	0	0	0	0	2	2	0	0	0	0	0	0	0	1	[B, B, B, B, B, B]	6	0	1	2xzb	LEU	250
272	1	0	2	0	0	1	0	0	0	0	0	0	0	0	1	0	0	0	0	0	[C, C, C, C, C]	5	0	0	1n8y	LEU	158
273	0	0	0	1	1	0	2	2	0	0	0	0	0	0	0	0	0	0	0	0	[C, C, C, C, C, C]	6	0	2	1n8y	LEU	485
274	0	0	0	0	0	0	0	0	0	0	1	1	1	0	1	1	0	0	0	0	[C, C, C, C, C]	5	1	1	1n8y	TYR	589
275	0	0	1	0	0	0	0	0	0	1	0	1	0	0	2	1	0	0	1	0	[C, C, C, C, C, C, C]	7	1	2	1n8y	MET	590
276	0	0	1	0	1	0	0	0	0	0	0	0	0	0	1	0	0	1	0	0	[C, C, C, C]	4	0	2	1n8y	ILE	607
277	1	1	1	1	0	0	0	1	0	0	0	0	0	0	0	0	1	0	0	0	[A, A, A, A, A, A]	6	0	2	3aeh	MET	1074
278	1	1	0	0	0	0	0	2	1	0	0	1	0	0	0	0	0	0	0	0	[A, A, A, A, A, A]	6	0	2	1rh5	ILE	240
279	0	1	0	0	0	1	0	0	0	0	0	0	0	0	1	2	0	0	1	0	[A, A, A, A, A, A]	6	0	0	2y02	PHE	147
280	1	0	1	0	0	0	1	0	0	1	0	0	0	0	0	0	0	0	0	0	[B, B, B, B]	4	1	2	2q7r	TYR	146
281	1	0	1	0	0	0	0	0	0	0	0	0	0	0	0	0	0	0	1	0	[B, B, B]	3	1	2	2q7r	ILE	147
282	1	0	1	0	0	0	1	0	0	0	0	0	0	0	0	0	1	0	1	0	[C, C, C, C, C]	5	0	1	2q7r	ILE	147
283	1	0	0	1	0	0	0	0	0	0	0	0	0	0	0	1	1	0	0	0	[A, A, A, A]	4	0	2	3qw9	LEU	156
284	0	0	0	0	0	1	0	0	0	0	1	1	1	0	0	0	1	1	0	0	[A, A, A, A, A, A]	6	0	2	3qw9	MET	164
285	0	1	0	2	0	0	0	0	0	0	0	0	0	0	0	2	0	0	0	0	[B, B, B, B, B]	5	0	1	3qw9	MET	74
286	0	0	1	0	0	0	0	0	0	1	0	0	0	0	0	0	0	1	0	0	[B, B, B]	3	2	2	3qw9	MET	160
287	0	0	0	0	0	0	0	0	0	0	1	0	1	0	1	0	1	1	0	0	[B, B, B, B, B]	5	2	2	3qw9	ILE	161
288	0	0	0	0	0	0	0	0	0	1	0	0	2	0	0	0	1	0	0	0	[B, B, B, B]	4	2	2	3qw9	TRP	162
289	1	0	0	0	0	0	2	1	0	2	0	2	0	0	0	0	0	0	0	0	[A, A, A, A, A, A, A, A]	8	0	2	4i0n	ILE	48
290	0	0	0	0	0	0	0	0	0	0	0	0	0	0	0	0	0	0	2	0	[A, A]	2	0	0	4i0n	LEU	322
291	0	0	2	0	0	1	0	1	0	1	0	0	0	0	0	0	2	0	0	0	[A, A, A, A, A, A, A]	7	0	0	3lkf	LEU	128
292	1	1	0	0	0	1	1	0	0	0	0	0	0	0	1	0	0	0	0	0	[A, A, A, A, A]	5	0	2	1su4	LEU	663
293	0	0	0	0	0	1	1	0	0	1	0	0	0	0	0	0	0	0	1	0	[A, A, B, B]	4	0	1	3syq	PHE	348
294	2	0	1	0	0	0	2	0	0	0	2	0	0	0	0	0	0	0	0	0	[A, A, A, A, A, A, A]	7	0	0	3syq	LEU	375
295	0	0	0	0	0	1	1	0	0	1	0	0	0	0	0	0	0	0	1	0	[C, C, D, D]	4	0	1	3syq	PHE	348
296	2	0	1	0	0	0	2	0	0	0	2	0	0	0	0	0	0	0	0	0	[C, C, C, C, C, C, C]	7	0	0	3syq	LEU	375
297	0	0	1	1	0	0	1	0	0	1	0	0	0	1	0	0	0	0	0	0	[B, B, B, B, B]	5	0	1	3cx5	LEU	338
298	0	1	0	0	0	4	1	0	0	0	0	1	0	0	0	0	0	0	0	1	[F, F, F, F, F, F, F, F]	8	0	1	3cx5	ILE	107
299	0	0	0	0	0	1	0	0	0	0	1	0	0	0	0	1	1	0	0	0	[L, L, L, L]	4	0	1	3cx5	LEU	230
300	0	0	1	1	0	0	1	0	0	1	0	0	0	1	0	0	0	0	0	0	[M, M, M, M, M]	5	0	1	3cx5	LEU	338
301	1	0	0	1	0	1	0	0	0	0	1	0	0	0	1	1	1	0	0	1	[P, P, P, P, P, P, P, P]	8	0	1	3cx5	MET	134
302	0	1	0	0	0	4	1	0	0	0	0	1	0	0	0	0	0	0	0	1	[Q, Q, Q, Q, Q, Q, Q, Q]	8	0	1	3cx5	ILE	107
303	0	1	0	0	0	0	0	1	0	1	0	0	0	1	1	0	0	0	0	0	[C, C, C, C, C]	5	1	1	2z64	LEU	125
304	0	0	0	0	0	0	0	0	0	1	1	1	0	0	1	0	0	0	0	0	[C, C, C, C]	4	1	1	2z64	PHE	126
305	0	0	1	0	0	0	0	0	0	0	0	0	0	0	0	0	2	0	0	3	[A, A, A, C, C, C]	6	0	0	2grx	ILE	9
306	0	0	0	0	0	1	1	0	0	0	0	0	0	0	0	1	1	0	0	0	[A, A, A, A]	4	0	2	3k07	PHE	964
307	0	0	0	0	0	1	1	0	0	0	0	0	0	0	0	1	1	0	0	0	[B, B, B, B]	4	0	2	3k07	PHE	964
308	0	0	0	0	0	1	1	0	0	0	0	0	0	0	0	1	1	0	0	0	[C, C, C, C]	4	0	2	3k07	PHE	964
309	1	0	1	0	0	0	1	0	0	0	0	1	0	0	1	0	1	0	0	0	[A, A, A, A, A, A]	6	0	1	3p2t	LEU	30
310	0	0	1	0	0	0	1	0	0	0	0	1	0	0	2	0	0	0	0	0	[A, A, A, A, A]	5	0	1	3p2t	LEU	52
311	0	1	0	0	0	0	1	1	0	1	2	0	0	1	0	0	1	0	0	0	[X, X, X, X, X, X, X, X]	8	0	2	3bib	ILE	7
312	0	0	0	0	0	0	0	1	1	0	0	0	0	0	0	1	0	1	1	0	[X, X, X, X, X]	5	0	0	3bib	LEU	21
313	0	0	0	0	0	0	0	1	0	0	2	0	0	0	0	1	3	0	0	0	[X, X, X, X, X, X, X]	7	0	0	3bib	LEU	65
314	1	0	0	0	0	0	0	0	0	0	0	0	0	0	1	1	1	0	0	0	[A, A, A, A]	4	0	1	2zuq	PHE	101
315	1	0	0	2	1	0	0	1	0	0	0	0	0	0	0	0	1	0	0	0	[A, A, A, A, A, A]	6	0	0	2zuq	CYS	104
316	0	0	1	0	0	1	0	0	0	0	0	0	0	1	0	0	0	0	2	0	[A, A, A, A, A]	5	1	1	3hzs	LEU	61
317	0	0	1	0	0	1	0	0	0	0	1	1	0	1	0	0	0	0	0	0	[A, A, A, A, A]	5	1	1	3hzs	TYR	62
318	0	0	0	1	0	0	0	1	0	0	0	0	0	0	0	0	1	0	0	1	[A, A, A, A]	4	0	2	2xkm	ILE	3
319	0	0	1	0	0	0	1	0	1	0	0	2	0	0	0	0	0	0	0	0	[J, J, J, J, J]	5	0	1	1l0l	TYR	59
320	0	0	1	0	0	0	1	0	1	0	0	2	0	0	0	0	0	0	0	0	[U, U, U, U, U]	5	0	1	1l0l	TYR	59
321	0	0	0	0	0	0	0	0	0	0	0	0	0	0	0	2	2	0	0	1	[A, A, B, B, B]	5	0	0	2l34	CYS	1
322	2	1	1	1	0	0	0	0	0	1	0	0	0	0	0	0	0	0	0	0	[A, A, A, A, A, A]	6	0	0	3b8e	LEU	641
323	0	0	0	0	0	0	1	0	0	0	0	1	0	0	1	1	0	0	0	0	[B, B, B, B]	4	0	0	3b8e	PHE	64
324	0	1	0	0	0	1	1	0	0	0	0	0	0	0	0	2	0	0	0	0	[A, A, A, A, A]	5	0	2	1zza	ILE	43
325	0	3	1	0	0	0	1	0	0	1	0	0	0	0	0	0	0	0	0	0	[A, A, A, A, A, A]	6	0	0	2iub	TYR	156
326	0	3	1	0	0	0	1	0	0	1	0	0	0	0	0	0	0	0	0	0	[B, B, B, B, B, B]	6	0	0	2iub	TYR	156
327	0	3	1	0	0	0	1	0	0	1	0	0	0	0	0	0	0	0	0	0	[C, C, C, C, C, C]	6	0	0	2iub	TYR	156
328	0	3	1	0	0	0	1	0	0	1	0	0	0	0	0	0	0	0	0	0	[D, D, D, D, D, D]	6	0	0	2iub	TYR	156
329	0	3	1	0	0	0	1	0	0	1	0	0	0	0	0	0	0	0	0	0	[E, E, E, E, E, E]	6	0	0	2iub	TYR	156
330	0	0	1	1	0	0	2	0	0	0	0	0	0	0	0	0	0	0	0	0	[A, A, A, A]	4	0	0	3rqw	ILE	152
331	0	0	1	1	0	0	2	0	0	0	0	0	0	0	0	0	0	0	0	0	[E, E, E, E]	4	0	0	3rqw	ILE	152
332	0	0	1	1	0	0	2	0	0	0	0	0	0	0	0	0	0	0	0	0	[B, B, B, B]	4	0	0	3rqw	ILE	152
333	0	0	1	1	0	0	2	0	0	0	0	0	0	0	0	0	0	0	0	0	[C, C, C, C]	4	0	0	3rqw	ILE	152
334	0	0	1	1	0	0	2	0	0	0	0	0	0	0	0	0	0	0	0	0	[D, D, D, D]	4	0	0	3rqw	ILE	152
335	0	1	1	1	0	0	0	0	0	0	0	0	0	0	0	0	0	0	0	0	[A, A, A]	3	0	0	3spc	CYS	41
336	0	1	1	1	0	0	0	0	0	0	0	0	0	0	0	0	0	0	0	0	[B, B, B]	3	0	0	3spc	CYS	41
337	0	1	1	1	0	0	0	0	0	0	0	0	0	0	0	0	0	0	0	0	[C, C, C]	3	0	0	3spc	CYS	41
338	0	1	1	1	0	0	0	0	0	0	0	0	0	0	0	0	0	0	0	0	[D, D, D]	3	0	0	3spc	CYS	41
339	1	0	0	0	0	1	0	1	0	0	1	0	0	1	0	1	0	0	0	0	[A, A, A, A, A, A]	6	0	1	3pik	LEU	20
340	0	0	0	0	0	1	1	1	0	0	1	1	0	0	0	0	1	0	0	0	[A, A, A, A, A, A]	6	0	1	3pik	LEU	188
341	1	0	0	0	0	1	0	1	0	0	1	0	0	1	0	1	0	0	0	0	[A, A, A, A, A, A]	6	0	1	3pik	LEU	20
342	0	0	0	0	0	1	1	1	0	0	1	1	0	0	0	0	1	0	0	0	[A, A, A, A, A, A]	6	0	1	3pik	LEU	188
343	1	0	0	0	0	1	0	1	0	0	1	0	0	1	0	1	0	0	0	0	[A, A, A, A, A, A]	6	0	1	3pik	LEU	20
344	0	0	0	0	0	1	1	1	0	0	1	1	0	0	0	0	1	0	0	0	[A, A, A, A, A, A]	6	0	1	3pik	LEU	188
345	0	0	0	1	0	0	2	1	1	0	0	0	0	0	0	0	0	0	0	0	[A, A, A, A, A]	5	0	0	4dx5	ILE	1040
346	1	1	0	0	0	1	0	0	1	0	0	1	0	2	0	0	0	0	0	0	[B, B, B, B, B, B, B]	7	0	0	2v50	MET	653
347	0	0	0	0	0	1	1	1	0	0	0	2	0	0	1	0	0	0	2	0	[B, B, B, B, B, B, B, B]	8	0	0	2v50	TRP	808
348	0	0	0	0	0	1	0	0	1	0	0	0	1	2	0	1	0	0	0	0	[C, C, C, C, C, C]	6	0	0	2v50	PHE	656
349	0	0	0	0	0	1	1	1	0	0	0	2	0	0	1	0	0	0	2	0	[C, C, C, C, C, C, C, C]	8	0	0	2v50	TRP	808
350	0	1	1	1	0	0	0	0	0	0	0	0	0	0	0	0	0	0	0	0	[A, A, A]	3	0	0	3spg	CYS	41
351	0	1	1	1	0	0	0	0	0	0	0	0	0	0	0	0	0	0	0	0	[B, B, B]	3	0	0	3spg	CYS	41
352	0	1	1	1	0	0	0	0	0	0	0	0	0	0	0	0	0	0	0	0	[C, C, C]	3	0	0	3spg	CYS	41
353	0	1	1	1	0	0	0	0	0	0	0	0	0	0	0	0	0	0	0	0	[D, D, D]	3	0	0	3spg	CYS	41
354	2	0	1	0	0	0	0	0	0	0	0	1	0	0	0	1	2	0	0	0	[A, A, A, A, A, A, A]	7	0	2	2l6x	CYS	175
355	0	0	2	0	0	0	0	1	0	0	1	1	0	0	0	2	0	1	0	0	[A, A, A, A, A, A, A, A]	8	0	2	3mdj	LEU	761
356	0	0	0	0	0	0	1	0	0	0	1	1	0	0	1	0	0	0	0	0	[A, A, A, A]	4	0	2	2or7	LEU	112
357	1	1	0	0	0	0	1	0	1	0	0	0	0	2	0	0	1	0	0	1	[A, A, A, A, A, A, A, A]	8	0	0	2qks	PHE	296
358	0	0	0	0	0	1	3	0	0	0	0	0	0	0	0	0	0	0	1	0	[A, A, A, A, A]	5	0	0	2qks	MET	311
359	1	1	0	0	0	0	1	0	1	0	0	0	0	2	0	0	1	0	0	1	[B, B, B, B, B, B, B, B]	8	0	0	2qks	PHE	296
360	0	0	0	0	0	1	3	0	0	0	0	0	0	0	0	0	0	0	1	0	[B, B, B, B, B]	5	0	0	2qks	MET	311
361	1	1	0	0	0	0	1	0	1	0	0	0	0	2	0	0	1	0	0	1	[C, C, C, C, C, C, C, C]	8	0	0	2qks	PHE	296
362	0	0	0	0	0	1	3	0	0	0	0	0	0	0	0	0	0	0	1	0	[C, C, C, C, C]	5	0	0	2qks	MET	311
363	1	1	0	0	0	0	1	0	1	0	0	0	0	2	0	0	1	0	0	1	[D, D, D, D, D, D, D, D]	8	0	0	2qks	PHE	296
364	0	0	0	0	0	1	3	0	0	0	0	0	0	0	0	0	0	0	1	0	[D, D, D, D, D]	5	0	0	2qks	MET	311
365	0	0	0	1	0	0	2	1	1	0	0	1	0	0	0	0	0	0	0	0	[A, A, A, A, A, A]	6	0	1	3d9b	ILE	1040
366	0	0	0	1	0	0	2	1	1	0	0	1	0	0	0	0	0	0	0	0	[A, A, A, A, A, A]	6	0	1	3d9b	ILE	1040
367	0	0	0	1	0	0	2	1	1	0	0	1	0	0	0	0	0	0	0	0	[A, A, A, A, A, A]	6	0	1	3d9b	ILE	1040
368	0	0	0	0	0	0	0	0	0	0	1	2	0	0	1	1	0	0	1	0	[B, B, B, B, B, B]	6	0	0	1mhs	TYR	432
369	0	0	1	1	0	0	0	2	1	0	0	1	1	1	0	0	0	0	0	0	[B, B, B, B, B, B, B, B]	8	0	1	1mhs	LEU	887
370	1	0	1	0	0	0	0	0	0	0	1	1	0	0	0	0	1	0	0	0	[A, A, A, A, A]	5	0	0	2lck	MET	210
371	0	1	0	0	1	0	0	0	0	0	2	0	0	0	0	0	0	0	2	0	[G, G, G, G, G, G]	6	1	1	2zw3	ILE	215
372	0	1	0	0	0	0	0	0	0	1	2	0	0	0	0	0	0	0	0	0	[G, G, G, G]	4	1	1	2zw3	TYR	217
373	0	1	0	0	1	0	0	0	0	0	2	0	0	0	0	0	0	0	2	0	[H, H, H, H, H, H]	6	1	1	2zw3	ILE	215
374	0	1	0	0	0	0	0	0	0	1	2	0	0	0	0	0	0	0	0	0	[H, H, H, H]	4	1	1	2zw3	TYR	217
375	0	1	0	0	1	0	0	0	0	0	2	0	0	0	0	0	0	0	2	0	[I, I, I, I, I, I]	6	1	1	2zw3	ILE	215
376	0	1	0	0	0	0	0	0	0	1	2	0	0	0	0	0	0	0	0	0	[I, I, I, I]	4	1	1	2zw3	TYR	217
377	0	1	0	0	1	0	0	0	0	0	2	0	0	0	0	0	0	0	2	0	[J, J, J, J, J, J]	6	1	1	2zw3	ILE	215
378	0	1	0	0	0	0	0	0	0	1	2	0	0	0	0	0	0	0	0	0	[J, J, J, J]	4	1	1	2zw3	TYR	217
379	0	1	0	0	1	0	0	0	0	0	2	0	0	0	0	0	0	0	2	0	[K, K, K, K, K, K]	6	1	1	2zw3	ILE	215
380	0	1	0	0	0	0	0	0	0	1	2	0	0	0	0	0	0	0	0	0	[K, K, K, K]	4	1	1	2zw3	TYR	217
381	0	1	0	0	1	0	0	0	0	0	2	0	0	0	0	0	0	0	2	0	[L, L, L, L, L, L]	6	1	1	2zw3	ILE	215
382	0	1	0	0	0	0	0	0	0	1	2	0	0	0	0	0	0	0	0	0	[L, L, L, L]	4	1	1	2zw3	TYR	217
383	1	1	1	1	0	0	0	0	0	0	0	1	0	0	0	0	2	0	1	0	[A, A, A, A, A, A, A, A]	8	0	1	1nqe	TYR	277
384	0	0	0	2	0	0	0	0	1	0	0	1	0	1	0	0	1	0	1	0	[A, A, A, A, A, A, A]	7	0	2	1nqe	LEU	451
385	0	0	0	0	0	0	0	0	0	0	0	0	0	0	1	1	0	0	2	0	[A, A, A, A]	4	0	2	1nqe	TYR	534
386	0	1	0	0	0	0	0	0	0	0	0	0	0	0	0	1	0	0	0	0	[A, A]	2	0	0	1yc9	TYR	287
387	0	1	0	0	0	0	0	0	0	0	0	0	0	0	0	1	0	0	0	0	[B, B]	2	0	0	1yc9	TYR	287
388	0	1	0	0	0	0	0	0	0	0	0	0	0	0	0	1	0	0	0	0	[C, C]	2	0	0	1yc9	TYR	287
389	0	0	2	1	0	0	0	0	0	0	0	0	0	1	1	0	0	1	0	0	[A, A, A, A, A, A]	6	0	1	2iah	ILE	504
390	1	0	1	1	0	0	0	0	0	0	0	0	0	0	0	1	0	0	1	0	[A, A, A, A, A]	5	0	0	2iah	LEU	649
391	1	1	1	0	0	0	1	1	0	0	0	0	0	0	0	1	1	0	0	0	[A, B, B, B, B, B, B]	7	0	0	2nps	MET	183
392	1	1	0	0	0	0	0	1	1	0	1	0	0	0	0	1	0	0	0	0	[C, C, C, C, C, C]	6	0	3	2nps	MET	114
393	0	2	0	0	0	1	0	0	0	1	1	0	1	0	0	0	0	0	0	0	[C, C, C, C, C, D]	6	0	1	2nps	ILE	189
394	0	3	1	0	0	0	1	0	0	1	0	0	0	0	0	0	0	0	0	0	[A, A, A, A, A, A]	6	0	0	2bbj	TYR	156
395	0	3	1	0	0	0	1	0	0	1	0	0	0	0	0	0	0	0	0	0	[B, B, B, B, B, B]	6	0	0	2bbj	TYR	156
396	0	3	1	0	0	0	1	0	0	1	0	0	0	0	0	0	0	0	0	0	[D, D, D, D, D, D]	6	0	0	2bbj	TYR	156
397	0	3	1	0	0	0	1	0	0	1	0	0	0	0	0	0	0	0	0	0	[E, E, E, E, E, E]	6	0	0	2bbj	TYR	156
398	0	3	1	0	0	0	1	0	0	1	0	0	0	0	0	0	0	0	0	0	[F, F, F, F, F, F]	6	0	0	2bbj	TYR	156
399	0	0	1	0	0	0	0	0	0	0	0	0	0	0	0	0	2	0	0	0	[B, B, B]	3	0	1	2knc	ILE	757
400	0	1	0	0	0	0	0	1	0	0	0	0	0	0	0	0	1	0	0	0	[B, B, B]	3	0	2	2knc	TYR	759
401	0	1	0	0	0	0	1	0	1	0	0	0	0	0	0	1	1	0	0	0	[A, A, A, A, A]	5	0	2	3flv	MET	4
402	0	0	0	0	0	0	0	1	0	1	0	0	1	1	1	0	0	0	0	0	[A, A, A, A, A]	5	0	1	3flv	MET	94
403	2	1	1	0	0	0	0	0	0	2	0	0	0	0	0	0	0	0	0	1	[A, A, A, A, A, A, A]	7	0	1	3n23	LEU	641
404	1	0	0	1	0	1	0	0	0	0	0	2	0	0	0	0	0	0	0	0	[B, B, B, B, B]	5	0	1	3n23	LEU	115
405	0	0	0	2	0	0	0	0	0	1	0	0	0	1	0	0	0	0	0	0	[B, B, B, B]	4	0	2	3n23	MET	121
406	0	0	0	0	0	0	0	0	0	0	0	1	0	0	0	0	0	0	2	1	[B, B, B, B]	4	0	0	3n23	MET	202
407	0	1	0	1	0	0	0	0	0	0	2	0	0	0	0	0	0	0	0	0	[A, A, A, A]	4	0	0	3nce	MET	14
408	0	1	0	0	0	0	1	0	2	0	0	0	1	0	0	0	1	0	0	0	[B, B, B, B, B, B]	6	0	1	3nce	LEU	47
409	2	0	0	0	0	1	0	0	1	0	1	1	0	0	0	0	0	0	0	1	[A, A, A, A, A, A, A]	7	0	0	3mkt	LEU	458
410	0	0	0	0	0	0	0	1	0	0	0	0	0	0	0	0	0	0	1	0	[Y, Y]	2	0	0	2zqp	TYR	255
411	0	1	0	1	0	1	1	0	0	0	1	0	0	0	0	1	2	0	0	0	[A, A, A, A, A, A, A, A]	8	0	1	3bs0	MET	415
412	0	1	1	0	0	1	0	0	0	0	1	0	1	0	1	0	0	0	0	0	[A, A, A, A, A, A]	6	0	0	1s3e	MET	280
413	1	0	0	0	0	0	0	2	0	0	0	0	1	1	1	0	0	0	0	0	[X, X, X, X, X, X]	6	0	1	3dwo	ILE	192
414	1	0	0	0	0	0	0	2	0	0	1	0	0	0	0	0	1	0	0	0	[A, A, A, A, A]	5	0	1	2qom	LEU	1139
415	1	0	0	1	0	1	1	0	0	0	1	1	0	1	0	0	0	0	0	1	[B, B, B, B, B, B, B, B]	8	0	2	2loh	PHE	7
416	0	1	0	0	0	0	0	0	0	0	0	0	0	0	1	1	0	0	0	0	[A, A, A]	3	0	2	1g5m	MET	206
417	1	0	0	0	0	0	1	0	0	0	0	2	0	0	2	0	0	0	0	0	[H, H, H, H, H, H]	6	0	0	3tt1	ILE	218
418	1	0	0	0	0	0	1	0	0	0	0	2	0	0	2	0	0	0	0	0	[I, I, I, I, I, I]	6	0	0	3tt1	ILE	218
419	0	0	2	0	0	0	0	0	0	0	0	0	0	1	0	1	0	0	0	0	[C, C, C, C]	4	0	0	1yjd	LEU	28
420	0	0	0	1	0	0	1	0	0	0	1	0	1	0	2	0	0	0	0	1	[C, C, C, C, C, C, C]	7	0	2	1yjd	TYR	104
421	0	0	1	1	0	0	0	0	0	0	1	0	0	0	0	0	0	0	0	0	[A, A, A]	3	0	0	3njt	LEU	294
422	1	0	1	0	0	1	0	1	0	0	1	1	0	0	0	1	0	0	0	0	[A, A, A, A, A, A, A]	7	1	2	3njt	TYR	340
423	1	0	1	0	0	1	0	0	0	0	0	0	0	0	0	1	0	0	1	0	[A, A, A, A, A]	5	1	2	3njt	LEU	341
424	0	0	1	1	0	0	1	1	0	0	0	2	0	0	0	0	0	0	0	0	[A, A, A, A, A, A]	6	0	2	2vdf	LEU	73
425	0	0	0	2	0	0	0	2	0	0	0	0	0	0	0	2	0	0	0	1	[A, A, A, A, A, A, A]	7	0	0	1p4t	LEU	95
426	0	0	1	0	0	0	0	1	0	0	1	0	0	0	0	1	0	0	1	0	[A, A, A, A, A]	5	0	1	4epa	LEU	394
427	1	0	0	0	0	2	1	0	0	0	0	0	0	1	0	1	1	0	1	0	[C, C, C, C, C, C, C, C]	8	0	1	2nq2	PHE	240
428	1	0	1	0	0	0	0	0	0	0	0	1	0	0	0	0	0	0	1	0	[D, D, D, D]	4	0	1	2nq2	MET	1
429	1	0	0	0	0	0	0	1	0	1	0	0	0	0	1	0	1	0	0	1	[A, A, A, A, A, A]	6	0	1	2iqv	LEU	229
430	1	0	1	0	0	0	0	0	0	0	0	0	0	0	1	0	1	0	0	0	[C, C, C, C]	4	0	2	2iqv	MET	126
431	0	0	0	1	0	0	0	1	0	0	0	0	0	0	0	1	0	0	0	0	[A, A, A]	3	0	1	2kyh	LEU	8
432	0	0	0	1	1	0	1	0	0	2	1	0	0	0	0	0	0	0	0	0	[A, A, A, A, A, A]	6	0	1	1fjr	LEU	3
433	0	1	0	1	0	1	0	1	0	0	0	0	0	0	0	0	0	0	0	0	[A, A, A, A]	4	0	1	3aqp	PHE	175
434	1	0	0	1	0	1	0	0	0	0	0	2	0	0	0	0	0	0	0	0	[B, B, B, B, B]	5	0	0	3kdp	LEU	115
435	0	0	0	2	0	0	0	0	0	1	0	2	0	1	0	0	0	0	0	0	[B, B, B, B, B, B]	6	0	2	3kdp	MET	121
436	0	0	1	0	0	0	0	1	0	0	0	0	0	0	0	0	0	0	0	0	[B, B]	2	0	0	3kdp	LEU	162
437	0	0	0	0	0	0	1	0	0	0	1	1	0	0	1	0	1	0	0	1	[B, B, B, B, B, B]	6	0	1	3kdp	TYR	199
438	0	0	1	0	0	0	0	1	0	0	0	0	0	0	0	0	3	0	0	1	[B, B, B, B, B, B]	6	0	0	3kdp	LEU	266
439	1	0	0	0	0	0	0	0	0	0	0	0	0	0	0	1	1	0	0	0	[A, A, A]	3	0	1	2kog	MET	1
440	0	0	2	0	0	0	0	0	0	0	1	0	0	0	1	1	1	0	0	0	[A, A, A, A, A, A]	6	0	1	2kog	LEU	26
441	1	1	1	0	0	0	1	0	1	0	0	0	0	0	0	1	0	0	0	0	[D, D, D, D, D, D]	6	0	2	3hd7	MET	140
442	0	0	0	2	0	0	1	0	0	0	0	0	0	0	0	0	0	0	0	0	[A, A, A]	3	0	0	2x9k	ILE	226
443	0	0	1	0	0	0	1	1	0	0	1	0	0	0	0	1	0	0	0	0	[B, B, B, B, B]	5	0	1	3v89	LEU	503
444	0	1	1	2	0	1	1	0	0	0	0	0	0	0	0	0	0	1	0	0	[A, A, A, A, A, A, A]	7	0	2	2iwv	ILE	226
445	1	0	0	0	0	0	0	2	1	0	2	0	0	0	0	0	0	0	0	0	[C, C, C, C, C, C]	6	0	0	1orq	LEU	113
446	0	1	0	0	0	0	0	0	0	3	2	0	0	1	0	1	0	0	0	0	[C, C, C, C, C, C, C, C]	8	0	1	1orq	LEU	128
447	1	0	0	0	0	0	0	2	1	0	2	0	0	0	0	0	0	0	0	0	[D, D, D, D, D, D]	6	0	0	1orq	LEU	113
448	0	1	0	0	0	0	0	0	0	3	2	0	0	1	0	1	0	0	0	0	[D, D, D, D, D, D, D, D]	8	0	1	1orq	LEU	128
449	1	0	0	0	0	0	0	2	1	0	2	0	0	0	0	0	0	0	0	0	[G, G, G, G, G, G]	6	0	0	1orq	LEU	113
450	0	1	0	0	0	0	0	0	0	3	2	0	0	1	0	1	0	0	0	0	[G, G, G, G, G, G, G, G]	8	0	1	1orq	LEU	128
451	1	0	0	0	0	0	0	2	1	0	2	0	0	0	0	0	0	0	0	0	[J, J, J, J, J, J]	6	0	0	1orq	LEU	113
452	0	1	0	0	0	0	0	0	0	3	2	0	0	1	0	1	0	0	0	0	[J, J, J, J, J, J, J, J]	8	0	1	1orq	LEU	128
453	0	0	0	0	0	2	0	1	0	1	0	0	0	0	0	0	0	0	0	0	[I, I, I, I]	4	0	1	3lut	TYR	212
454	0	0	0	0	0	2	0	1	0	1	0	0	0	0	0	0	0	0	0	0	[J, J, J, J]	4	0	1	3lut	TYR	212
455	0	0	0	0	0	2	0	1	0	1	0	0	0	0	0	0	0	0	0	0	[K, K, K, K]	4	0	1	3lut	TYR	212
456	0	0	0	0	0	2	0	1	0	1	0	0	0	0	0	0	0	0	0	0	[L, L, L, L]	4	0	1	3lut	TYR	212
457	0	0	0	2	1	0	0	1	0	0	0	1	0	0	1	1	0	0	0	1	[A, A, A, A, A, A, A, A]	8	0	2	3b9r	PHE	376
458	0	0	0	1	0	0	1	1	2	0	0	0	0	0	1	0	0	0	0	0	[A, A, A, A, A, A]	6	0	0	3b9r	PHE	883
459	0	0	0	1	1	0	1	1	0	0	0	0	0	0	0	0	0	0	0	0	[A, A, A, A]	4	0	0	3b9r	LEU	886
460	0	1	0	0	0	0	0	0	0	0	0	0	0	0	0	0	1	0	0	1	[A, A, A]	3	0	1	3bea	LEU	682
461	0	0	1	0	0	0	0	1	0	1	0	1	0	1	0	0	0	0	0	1	[A, A, A, A, A, A]	6	0	2	3bea	LEU	860
462	0	0	0	1	0	0	0	1	0	0	1	0	0	0	0	0	0	0	0	0	[X, X, X]	3	0	0	2x27	LEU	83
463	0	0	0	0	0	0	0	1	0	0	0	0	0	0	0	0	0	0	0	1	[H, H]	2	0	0	2j8d	MET	1
464	0	1	0	0	0	0	0	2	1	0	0	1	0	0	0	0	0	0	0	1	[A, A, A, A, A, A]	6	0	2	2yxr	ILE	240
465	2	1	0	0	0	0	0	1	0	1	0	2	0	0	0	0	0	0	0	0	[A, A, A, A, A, A, A]	7	0	0	2yxr	PHE	359
466	0	0	0	0	0	0	1	0	1	0	0	1	0	0	1	1	0	0	0	1	[A, A, A, A, A, A]	6	0	1	2yxr	LEU	426
467	1	0	1	0	0	0	0	1	0	0	1	0	1	0	0	0	0	0	0	0	[D, D, D, D, D]	5	0	1	4j3o	LEU	84
468	0	1	1	0	0	0	0	2	0	0	0	0	0	0	0	0	0	0	0	0	[D, D, D, D]	4	0	0	4j3o	ILE	155
469	0	0	0	0	0	1	0	0	0	1	0	0	0	1	0	0	3	0	0	1	[D, D, D, D, D, D, D]	7	0	0	4j3o	ILE	312
470	0	0	0	2	0	0	0	0	1	1	0	1	0	0	0	0	1	0	0	1	[A, A, A, A, A, A, A]	7	0	2	3kaa	LEU	84
471	0	0	2	0	0	0	0	1	0	0	0	1	0	0	0	1	0	0	0	1	[A, A, A, A, A, A]	6	0	2	1qjp	TYR	111
472	1	0	0	0	0	0	0	1	1	0	0	0	0	0	0	0	2	0	0	0	[A, A, A, A, A]	5	0	0	1bxw	ILE	153
473	1	0	0	0	0	0	0	1	0	0	1	2	0	0	0	1	0	0	0	0	[A, A, A, A, A, A]	6	0	0	3rfu	LEU	479
474	2	0	1	0	0	1	0	0	1	0	0	0	0	1	0	0	0	0	0	0	[A, A, A, A, A, A]	6	0	1	3tgh	LEU	341
475	0	0	2	0	0	0	0	0	0	0	0	0	0	0	0	0	3	0	1	0	[A, A, A, A, A, A]	6	0	2	3g5b	LEU	657
476	1	0	0	0	0	0	0	0	0	0	1	2	0	0	0	0	0	0	0	0	[A, A, A, A]	4	0	1	3g5b	LEU	771
477	0	1	0	0	0	0	1	0	0	0	1	0	0	1	1	0	0	0	0	1	[A, A, A, A, A, A]	6	1	2	3odu	LEU	323
478	0	0	0	0	0	1	1	0	0	0	1	0	0	1	0	0	0	0	0	1	[A, A, A, A, A]	5	1	2	3odu	LEU	326
479	1	0	0	2	0	0	1	0	0	0	0	1	0	0	0	1	0	0	0	0	[A, A, A, A, A, A]	6	0	3	3awr	LEU	60
480	0	1	2	0	0	0	0	0	0	0	1	0	0	0	0	0	1	0	0	0	[A, A, A, A, A]	5	0	1	2rgh	PHE	244
481	1	0	0	1	0	1	0	0	0	0	0	0	0	0	0	1	0	0	0	0	[A, A, A, A]	4	0	0	3puz	ILE	251
482	1	0	0	1	0	1	0	0	0	0	0	0	0	0	0	1	0	0	0	0	[B, B, B, B]	4	0	0	3puz	ILE	251
483	0	0	0	0	0	0	1	1	2	1	1	0	0	0	0	0	0	0	0	0	[A, A, A, A, A, A]	6	0	0	3ug9	ILE	316
484	0	0	0	0	0	0	1	1	2	1	1	0	0	0	0	0	0	0	0	0	[A, A, A, A, A, A]	6	0	0	3ug9	ILE	316
485	0	1	0	0	0	0	0	2	0	0	0	0	0	0	1	0	1	0	0	0	[A, A, A, A, A]	5	0	0	1fft	TRP	534
486	1	0	0	0	0	0	0	0	1	0	0	1	0	0	1	0	0	0	0	0	[B, B, B, B]	4	0	0	1fft	LEU	120
487	0	0	1	0	0	0	0	2	0	1	0	0	0	0	1	0	0	0	0	1	[C, C, C, C, C, C]	6	0	1	1fft	MET	128
488	2	0	1	0	0	0	0	1	1	1	1	0	0	0	0	0	0	0	0	1	[C, C, C, C, C, C, C, C]	8	0	2	3v8g	LEU	115
489	0	0	1	1	0	0	0	1	0	0	0	1	0	0	2	0	0	0	0	1	[A, A, A, A, A, A, A]	7	0	0	3oai	ILE	1106
490	0	0	0	0	0	0	0	1	0	1	0	1	0	0	0	0	1	0	0	0	[A, A, A, A]	4	0	1	2oqo	ILE	58
491	0	0	1	0	0	0	0	0	1	0	0	0	0	1	2	0	0	0	0	0	[A, A, A, A, A]	5	0	0	2oqo	TYR	210
492	0	1	0	0	0	0	0	0	0	0	1	1	0	0	0	1	0	1	0	0	[B, B, B, B, B]	5	0	0	2zxe	MET	155
493	0	0	1	0	0	0	0	1	0	1	0	0	0	0	0	1	2	0	0	0	[B, B, B, B, B, B]	6	0	0	2zxe	LEU	268
494	0	0	0	0	0	0	1	1	0	0	0	0	0	0	1	0	1	0	0	0	[B, B, B, B]	4	0	1	2ks1	CYS	136
495	0	0	1	0	0	0	0	0	0	0	0	0	0	0	0	3	1	0	0	0	[A, A, A, B, B]	5	0	0	2xq2	ILE	503
496	0	0	1	0	0	0	0	0	0	0	0	0	0	0	0	3	1	0	0	0	[A, A, B, B, B]	5	0	0	2xq2	ILE	503
497	1	0	1	0	0	0	0	0	0	0	0	0	0	0	0	1	3	0	0	0	[A, A, A, A, A, A]	6	0	1	2lje	PHE	754
498	0	0	1	0	0	0	0	0	0	0	0	0	0	0	0	0	2	0	0	0	[A, A, A]	3	0	1	2lje	ILE	757
499	0	0	1	1	0	2	1	1	0	0	0	0	0	0	0	0	0	1	0	0	[A, A, A, A, A, A, A]	7	0	0	1uun	LEU	2
500	0	0	1	1	0	2	1	1	0	0	0	0	0	0	0	0	0	1	0	0	[B, B, B, B, B, B, B]	7	0	0	1uun	LEU	2
501	0	0	1	1	0	2	1	1	0	0	0	0	0	0	0	0	0	1	0	0	[C, C, C, C, C, C, C]	7	0	0	1uun	LEU	2
502	0	0	1	1	0	2	1	1	0	0	0	0	0	0	0	0	0	1	0	0	[D, D, D, D, D, D, D]	7	0	0	1uun	LEU	2
503	0	0	1	1	0	2	1	1	0	0	0	0	0	0	0	0	0	1	0	0	[E, E, E, E, E, E, E]	7	0	0	1uun	LEU	2
504	0	0	1	1	0	2	1	1	0	0	0	0	0	0	0	0	0	1	0	0	[F, F, F, F, F, F, F]	7	0	0	1uun	LEU	2
505	0	0	1	1	0	2	1	1	0	0	0	0	0	0	0	0	0	1	0	0	[G, G, G, G, G, G, G]	7	0	0	1uun	LEU	2
506	0	0	1	1	0	2	1	1	0	0	0	0	0	0	0	0	0	1	0	0	[H, H, H, H, H, H, H]	7	0	0	1uun	LEU	2
507	0	0	0	2	1	0	0	1	0	0	0	1	0	0	1	1	0	0	0	1	[A, A, A, A, A, A, A, A]	8	0	2	3fpb	PHE	376
508	0	0	0	1	1	0	1	1	0	1	0	0	0	0	1	0	0	0	0	0	[A, A, A, A, A, A]	6	0	0	3fpb	LEU	886
509	0	0	1	0	0	0	0	0	0	0	0	1	0	0	0	2	0	0	0	2	[A, A, A, A, A, A]	6	0	0	2hi7	PHE	129
510	1	0	1	1	0	0	1	0	0	0	0	0	0	0	0	1	0	0	0	0	[A, A, A, A, A]	5	0	2	3g5u	MET	91
511	0	0	0	0	0	0	0	1	1	0	0	1	0	0	0	1	0	0	0	0	[A, A, A, A]	4	0	0	2wsw	MET	2
512	0	0	0	0	0	0	0	1	1	0	0	1	0	0	0	1	0	0	0	0	[B, B, B, B]	4	0	0	2wsw	MET	2
513	0	0	0	0	0	0	0	1	1	0	0	1	0	0	0	1	0	0	0	0	[C, C, C, C]	4	0	0	2wsw	MET	2
514	0	1	2	0	0	0	0	0	0	0	1	0	0	0	0	1	0	0	0	0	[A, A, A, A, A]	5	0	2	2lhf	LEU	27
515	0	1	0	0	0	0	0	2	0	0	0	2	0	0	0	0	0	0	0	0	[A, A, A, A, A]	5	0	1	2lhf	PHE	111
516	0	0	0	1	0	0	0	0	0	1	1	0	0	1	0	0	0	0	0	1	[A, A, A, A, A]	5	0	1	4c00	LEU	83
517	0	0	1	0	0	0	0	1	0	0	0	0	0	0	0	1	1	0	0	0	[A, A, A, A]	4	0	0	3cap	MET	1
518	0	1	0	0	0	0	0	2	0	0	0	0	0	0	0	0	0	0	0	0	[Y, Y, Y]	3	0	1	2zjs	TYR	255
519	1	1	0	1	0	0	0	1	0	0	0	0	0	0	0	1	0	0	0	0	[A, A, A, A, A]	5	0	1	1ujw	TYR	284
520	0	0	2	0	0	1	0	1	0	1	0	0	0	0	0	0	2	0	0	0	[B, B, B, B, B, B, B]	7	0	0	2qk7	LEU	128
521	0	0	1	0	0	0	0	1	0	0	0	1	0	0	0	1	1	0	0	0	[A, A, A, A, A]	5	0	1	3pxo	MET	1
522	0	0	1	0	0	0	0	1	0	0	0	1	0	0	0	1	1	0	0	0	[B, B, B, B, B]	5	0	1	3pxo	MET	1
523	0	0	1	0	0	0	0	0	0	0	0	0	0	0	0	0	0	0	0	1	[A, A]	2	0	1	2lor	MET	1
524	0	1	1	0	0	0	0	1	0	0	1	0	0	0	0	1	0	0	0	1	[A, A, A, A, A, A]	6	1	2	2lor	LEU	4
525	0	1	0	1	0	0	0	1	0	0	1	0	0	0	0	1	0	0	0	2	[A, A, A, A, A, A, A]	7	1	2	2lor	LEU	6
526	0	2	0	0	0	0	1	0	0	0	1	0	0	0	2	0	0	0	0	0	[A, A, A, A, A, A]	6	0	1	2yvx	TRP	79
527	0	2	0	0	0	0	1	0	0	0	1	0	0	0	2	0	0	0	0	0	[B, B, B, B, B, B]	6	0	1	2yvx	TRP	79
528	0	0	0	0	0	1	1	0	0	1	0	1	0	0	0	0	1	0	0	0	[A, A, A, A, A]	5	0	0	3ije	MET	118
529	0	1	1	3	1	0	0	0	0	0	0	0	0	0	0	0	0	0	0	0	[A, A, A, A, A, A]	6	0	0	3duz	PHE	129
530	0	1	1	3	1	0	0	0	0	0	0	0	0	0	0	0	0	0	0	0	[A, A, A, A, A, A]	6	0	0	3duz	PHE	129
531	0	1	1	3	1	0	0	0	0	0	0	0	0	0	0	0	0	0	0	0	[A, A, A, A, A, A]	6	0	0	3duz	PHE	129
532	1	0	0	0	0	0	0	0	0	0	0	0	0	0	3	0	0	0	0	0	[A, A, A, A]	4	0	1	3nks	CYS	26
533	0	0	0	0	0	0	1	1	0	0	2	0	0	0	0	1	0	0	0	1	[A, A, A, A, A, A]	6	0	2	3nks	CYS	382
534	0	1	0	0	0	0	0	2	1	0	0	1	0	0	0	0	0	0	0	1	[A, A, A, A, A, A]	6	0	2	1rhz	ILE	240
535	2	1	0	0	0	0	0	1	0	1	0	2	0	0	0	0	0	0	0	0	[A, A, A, A, A, A, A]	7	0	0	1rhz	PHE	359
536	0	0	0	0	0	0	1	0	1	0	0	1	0	0	1	1	0	0	0	1	[A, A, A, A, A, A]	6	0	1	1rhz	LEU	426
537	0	0	1	0	1	0	1	2	0	0	0	0	0	0	0	1	0	0	1	0	[A, A, A, A, A, A, A]	7	0	1	2vj2	ILE	335
538	0	1	0	0	0	0	0	1	0	0	1	0	0	0	0	2	0	0	0	1	[B, B, B, B, B, B]	6	0	0	4djh	LEU	259
539	0	0	1	0	0	1	1	1	0	0	0	2	0	0	0	0	0	0	0	0	[A, A, A, A, A, A]	6	0	2	4aiq	LEU	680
540	0	0	0	2	1	0	0	1	0	0	0	0	0	0	0	1	0	0	0	1	[A, A, A, A, A, A]	6	0	2	2agv	PHE	376
541	0	0	0	0	0	0	1	1	2	0	0	0	0	0	1	0	0	0	0	0	[A, A, A, A, A]	5	0	1	2agv	PHE	883
542	0	0	0	1	0	0	1	1	0	0	0	0	0	0	0	0	0	0	0	0	[A, A, A]	3	0	1	2agv	LEU	886
543	0	0	1	0	0	0	0	0	0	1	0	0	0	0	0	0	0	0	0	0	[A, A]	2	1	1	3m73	MET	1
544	0	0	1	0	0	0	0	0	0	0	0	1	1	0	0	0	1	0	0	0	[A, A, A, A]	4	1	1	3m73	ILE	3
545	0	0	1	0	0	0	0	0	0	1	0	0	0	0	0	0	0	0	0	0	[F, F]	2	1	1	3m73	MET	1
546	0	0	1	0	0	0	0	0	0	0	0	1	1	0	0	0	1	0	0	0	[F, F, F, F]	4	1	1	3m73	ILE	3
547	0	0	1	0	0	0	0	0	0	1	0	0	0	0	0	0	0	0	0	0	[K, K]	2	1	1	3m73	MET	1
548	0	0	1	0	0	0	0	0	0	0	0	1	1	0	0	0	1	0	0	0	[K, K, K, K]	4	1	1	3m73	ILE	3
549	0	1	0	2	0	0	0	0	0	0	0	0	0	0	1	0	0	1	0	0	[A, A, A, A, A]	5	0	1	3kyq	ILE	108
550	0	0	0	2	1	0	0	1	0	0	0	1	0	0	1	1	0	0	0	1	[A, A, A, A, A, A, A, A]	8	0	2	2by4	PHE	376
551	0	0	1	0	0	0	0	0	0	0	0	1	0	1	0	0	1	0	0	0	[B, B, B, B]	4	0	0	1m6b	LEU	249
552	0	0	0	1	0	0	0	0	1	0	0	1	0	0	1	0	0	0	0	0	[B, B, B, B]	4	0	2	1m6b	TRP	354
553	1	0	0	0	0	0	0	0	0	0	0	1	0	1	1	0	0	0	0	1	[A, A, A, A, A]	5	0	1	2k0l	ILE	7
554	0	0	0	0	0	0	0	2	0	0	0	0	0	0	0	0	1	0	1	0	[A, A, A, A]	4	0	0	2k0l	PHE	35
555	0	0	0	0	0	0	0	1	0	0	1	0	0	0	1	1	0	0	0	0	[A, A, A, A]	4	1	1	2v8n	LEU	406
556	0	1	0	0	0	0	0	1	0	0	2	0	0	0	0	1	0	0	0	0	[A, A, A, A, A]	5	1	2	2v8n	LEU	408
557	0	0	0	1	0	0	0	1	0	0	0	0	0	1	0	0	1	0	1	1	[A, A, A, A, A, A]	6	0	1	1dqt	LEU	61
558	0	0	0	0	0	0	1	0	0	0	1	0	1	1	2	0	0	0	1	1	[A, A, A, A, A, A, A, A]	8	0	2	1dqt	TYR	102
559	0	1	0	0	0	0	2	0	0	0	0	0	0	0	0	1	1	0	0	0	[A, A, A, A, A]	5	0	0	1nek	MET	566
560	0	1	0	0	0	0	0	0	0	0	0	1	0	0	0	0	1	0	0	0	[A, A, A]	3	0	0	1nek	ILE	585
561	1	1	0	1	0	0	2	0	0	0	1	0	0	0	0	0	0	0	0	0	[B, B, B, B, B, B]	6	0	3	1nek	MET	1
562	0	1	0	0	0	0	2	0	0	0	0	0	0	0	0	1	1	0	0	0	[A, A, A, A, A]	5	0	0	1nek	MET	566
563	0	1	0	0	0	0	0	0	0	0	0	1	0	0	0	0	1	0	0	0	[A, A, A]	3	0	0	1nek	ILE	585
564	1	1	0	1	0	0	2	0	0	0	1	0	0	0	0	0	0	0	0	0	[B, B, B, B, B, B]	6	0	3	1nek	MET	1
565	0	1	0	0	0	0	2	0	0	0	0	0	0	0	0	1	1	0	0	0	[A, A, A, A, A]	5	0	0	1nek	MET	566
566	0	1	0	0	0	0	0	0	0	0	0	1	0	0	0	0	1	0	0	0	[A, A, A]	3	0	0	1nek	ILE	585
567	1	1	0	1	0	0	2	0	0	0	1	0	0	0	0	0	0	0	0	0	[B, B, B, B, B, B]	6	0	3	1nek	MET	1
